PD-1 Responsive Glioblastoma Case Study: Mutation & CNV analysis
…
sc_vafs <- data.frame(sc@vafs.merged)

Remove NA clusters and negative clusters. Preview the results.

sc_vafs <- sc_vafs[!is.na(sc_vafs$cluster) & sc_vafs$cluster > 0,]

sc_vafs

## # A tibble: 108 x 33
##      chr     st Recurrent_A.ref Recurrent_A.var Recurrent_A.vaf
##    <dbl>  <dbl>           <dbl>           <dbl>           <dbl>
##  1     2 7.45e6             544               2           0.366
##  2     2 9.96e6             471               1           0.212
##  3     2 2.66e7             361               3           0.824
##  4     2 7.45e7             412               0           0    
##  5     2 8.53e7            1035              57           5.22 
##  6     2 9.63e7             535               5           0.926
##  7     2 1.03e8             421               0           0    
##  8     2 1.28e8             970              12           1.22 
##  9     2 1.39e8             472               1           0.211
## 10     2 1.41e8             329               1           0.303
## #  with 98 more rows, and 28 more variables: Recurrent_A.cn <dbl>,
## #   Recurrent_A.cleancn <int>, Recurrent_A.depth <dbl>,
## #   Recurrent_B.ref <dbl>, Recurrent_B.var <dbl>, Recurrent_B.vaf <dbl>,
## #   Recurrent_B.cn <dbl>, Recurrent_B.cleancn <int>,
## #   Recurrent_B.depth <dbl>, Recurrent_C.ref <dbl>, Recurrent_C.var <dbl>,
## #   Recurrent_C.vaf <dbl>, Recurrent_C.cn <dbl>,
## #   Recurrent_C.cleancn <int>, Recurrent_C.depth <dbl>, Primary.ref <dbl>,
## #   Primary.var <dbl>, Primary.vaf <dbl>, Primary.cn <dbl>,
## #   Primary.cleancn <int>, Primary.depth <dbl>, adequateDepth <dbl>,
…
